{"Nodes":[],"ExecutionTime":"2024-11-25T04:41:14.6264435Z","GenerationTime":"0001-01-01T00:00:00","PluginUserSpecFlowId":"c7f4e8ef-763b-4aaa-823c-62b9922d9305","CLIUserSpecFlowId":null,"ExecutionResults":[{"ContextType":"Scenario","FeatureFolderPath":"Features","FeatureTitle":"To test the Get Request API","ScenarioTitle":"Get Request Testing","ScenarioArguments":[],"Status":"OK","StepResults":[{"Duration":"00:00:00.1796259","Status":"OK","Error":null,"Outputs":[{"OutputLocation":"Step","Type":"Text","Message":"{\"page\":1,\"per_page\":6,\"total\":12,\"total_pages\":2,\"data\":[{\"id\":1,\"email\":\"george.bluth@reqres.in\",\"first_name\":\"George\",\"last_name\":\"Bluth\",\"avatar\":\"https://reqres.in/img/faces/1-image.jpg\"},{\"id\":2,\"email\":\"janet.weaver@reqres.in\",\"first_name\":\"Janet\",\"last_name\":\"Weaver\",\"avatar\":\"https://reqres.in/img/faces/2-image.jpg\"},{\"id\":3,\"email\":\"emma.wong@reqres.in\",\"first_name\":\"Emma\",\"last_name\":\"Wong\",\"avatar\":\"https://reqres.in/img/faces/3-image.jpg\"},{\"id\":4,\"email\":\"eve.holt@reqres.in\",\"first_name\":\"Eve\",\"last_name\":\"Holt\",\"avatar\":\"https://reqres.in/img/faces/4-image.jpg\"},{\"id\":5,\"email\":\"charles.morris@reqres.in\",\"first_name\":\"Charles\",\"last_name\":\"Morris\",\"avatar\":\"https://reqres.in/img/faces/5-image.jpg\"},{\"id\":6,\"email\":\"tracey.ramos@reqres.in\",\"first_name\":\"Tracey\",\"last_name\":\"Ramos\",\"avatar\":\"https://reqres.in/img/faces/6-image.jpg\"}],\"support\":{\"url\":\"https://contentcaddy.io?utm_source=reqres&utm_medium=json&utm_campaign=referral\",\"text\":\"Tired of writing endless social media content? Let Content Caddy generate it for you.\"}}","FilePath":null}]},{"Duration":"00:00:00.0004818","Status":"OK","Error":null,"Outputs":null}],"Outputs":null},{"ContextType":"Scenario","FeatureFolderPath":"Features","FeatureTitle":"To test the Get Request API","ScenarioTitle":"Post Request Testing","ScenarioArguments":[],"Status":"OK","StepResults":[{"Duration":"00:00:00.2438450","Status":"OK","Error":null,"Outputs":[{"OutputLocation":"Step","Type":"Text","Message":"Post response is{\"id\":\"675\",\"createdAt\":\"2024-11-25T04:41:14.381Z\"}","FilePath":null}]},{"Duration":"00:00:00.0002890","Status":"OK","Error":null,"Outputs":null}],"Outputs":null},{"ContextType":"Scenario","FeatureFolderPath":"Features","FeatureTitle":"To test the Get Request API","ScenarioTitle":"Put Request Testing","ScenarioArguments":[],"Status":"OK","StepResults":[{"Duration":"00:00:00.2491315","Status":"OK","Error":null,"Outputs":[{"OutputLocation":"Step","Type":"Text","Message":"Post response is{\"updatedAt\":\"2024-11-25T04:41:14.621Z\"}","FilePath":null}]},{"Duration":"00:00:00.0000176","Status":"OK","Error":null,"Outputs":null}],"Outputs":null}],"StepReports":null}